{
    "config": {
        "desc": "This config var is manually added after the JSON is downloaded from the server.",
        "download_url_template": "https://s3.amazonaws.com/rcpar.courseware-v2.1.2017/cram_course/@section@/web/",
        "upload_bucket": "roger.olv-v2.1.2017",
        "upload_prefix": "cram_course"
    },

    "videos": {
        "AUD-CRAM": {
            "chapters": {
                "AUD-CRAM-0": {
                    "chapter_title": "AUD Cram Roger CPA Review",
                    "topics": {
                        "AUD-CRAM-0.0": {
                            "title": "Cram Course Introduction",
                            "video_file": "AUD-Cram-0.00.mp4",
                            "duration": "21:42"
                        },
                        "AUD-CRAM-0.1": {
                            "title": "Financial Statement Audit",
                            "video_file": "AUD-Cram-0.01.mp4",
                            "duration": "9:26"
                        },
                        "AUD-CRAM-0.2": {
                            "title": "Clarity Standards",
                            "video_file": "AUD-Cram-0.02.mp4",
                            "duration": "10:06"
                        },
                        "AUD-CRAM-0.3": {
                            "title": "10 Generally Accepted Auditing Standards",
                            "video_file": "AUD-Cram-0.03.mp4",
                            "duration": "12:18"
                        },
                        "AUD-CRAM-0.4": {
                            "title": "Responsibilities of the Auditor",
                            "video_file": "AUD-Cram-0.04.mp4",
                            "duration": "9:33"
                        },
                        "AUD-CRAM-0.5": {
                            "title": "Steps in the Auditing Process",
                            "video_file": "AUD-Cram-0.05.mp4",
                            "duration": "17:10"
                        },
                        "AUD-CRAM-0.6": {
                            "title": "Planning Procedures",
                            "video_file": "AUD-Cram-0.06.mp4",
                            "duration": "25:04"
                        },
                        "AUD-CRAM-0.7": {
                            "title": "Quality Control",
                            "video_file": "AUD-Cram-0.07.mp4",
                            "duration": "5:27"
                        },
                        "AUD-CRAM-0.8": {
                            "title": "Audit Standards - Questions",
                            "video_file": "AUD-Cram-0.08.mp4",
                            "duration": "8:30"
                        },
                        "AUD-CRAM-0.9": {
                            "title": "Research Task Format",
                            "video_file": "AUD-Cram-0.09.mp4",
                            "duration": "6:15"
                        },
                        "AUD-CRAM-0.10": {
                            "title": "Professional Responsibilities and Ethics",
                            "video_file": "AUD-Cram-0.10.mp4",
                            "duration": "1:10:15"
                        },
                        "AUD-CRAM-0.11": {
                            "title": "Internal Control",
                            "video_file": "AUD-Cram-0.11.mp4",
                            "duration": "49:17"
                        },
                        "AUD-CRAM-0.12": {
                            "title": "Internal Control - Continued",
                            "video_file": "AUD-Cram-0.12.mp4",
                            "duration": "42:00"
                        },
                        "AUD-CRAM-0.13": {
                            "title": "Audit Evidence - Part 1",
                            "video_file": "AUD-Cram-0.13.mp4",
                            "duration": "44:35"
                        },
                        "AUD-CRAM-0.14": {
                            "title": "Audit Evidence - Part 2",
                            "video_file": "AUD-Cram-0.14.mp4",
                            "duration": "32:47"
                        },
                        "AUD-CRAM-0.15": {
                            "title": "Audit Evidence - Part 3",
                            "video_file": "AUD-Cram-0.15.mp4",
                            "duration": "34:52"
                        },
                        "AUD-CRAM-0.16": {
                            "title": "Audit Reports",
                            "video_file": "AUD-Cram-0.16.mp4",
                            "duration": "19:28"
                        },
                        "AUD-CRAM-0.17": {
                            "title": "Chart for Audit Reports",
                            "video_file": "AUD-Cram-0.17.mp4",
                            "duration": "16:43"
                        },
                        "AUD-CRAM-0.18": {
                            "title": "Framework for Reporting",
                            "video_file": "AUD-Cram-0.18.mp4",
                            "duration": "23:21"
                        },
                        "AUD-CRAM-0.19": {
                            "title": "Comparative Financial Statements",
                            "video_file": "AUD-Cram-0.19.mp4",
                            "duration": "6:31"
                        },
                        "AUD-CRAM-0.20": {
                            "title": "Audit Reports - Questions",
                            "video_file": "AUD-Cram-0.20.mp4",
                            "duration": "11:04"
                        },
                        "AUD-CRAM-0.21": {
                            "title": "Preparation of Financial Statements and Compilation Engagements",
                            "video_file": "AUD-Cram-0.21.mp4",
                            "duration": "32:08"
                        },
                        "AUD-CRAM-0.22": {
                            "title": "Review Engagements",
                            "video_file": "AUD-Cram-0.22.mp4",
                            "duration": "21:26"
                        },
                        "AUD-CRAM-0.23": {
                            "title": "Comparisons of Engagements and Codified Standards",
                            "video_file": "AUD-Cram-0.23.mp4",
                            "duration": "9:22"
                        },
                        "AUD-CRAM-0.24": {
                            "title": "SSARS - Questions",
                            "video_file": "AUD-Cram-0.24.mp4",
                            "duration": "10:44"
                        },
                        "AUD-CRAM-0.25": {
                            "title": "Other Engagements: Special Reports",
                            "video_file": "AUD-Cram-0.25.mp4",
                            "duration": "16:16"
                        },
                        "AUD-CRAM-0.26": {
                            "title": "Other Engagements: Attestation Engagements",
                            "video_file": "AUD-Cram-0.26.mp4",
                            "duration": "20:50"
                        },
                        "AUD-CRAM-0.27": {
                            "title": "Statistical Sampling",
                            "video_file": "AUD-Cram-0.27.mp4",
                            "duration": "32:17"
                        },
                        "AUD-CRAM-0.28": {
                            "title": "Information Technology (IT)",
                            "video_file": "AUD-Cram-0.28.mp4",
                            "duration": "21:28"
                        },
                        "AUD-CRAM-0.29": {
                            "title": "DRS Introduction - Part 1 (AUD Cram)",
                            "video_file": "AUD-Cram-0.29.mp4",
                            "duration": "36:08"
                        },
                        "AUD-CRAM-0.30": {
                            "title": "DRS Introduction - Part 2 (AUD Cram)",
                            "video_file": "AUD-Cram-0.30.mp4",
                            "duration": "16:17"
                        }
                    }
                }
            }
        },
        "BEC-CRAM": {
            "chapters": {
                "BEC-CRAM-0": {
                    "chapter_title": "BEC Cram Roger CPA Review",
                    "topics": {
                        "BEC-CRAM-0.0": {
                            "title": "Course Introduction",
                            "video_file": "BEC-Cram-0.00.mp4",
                            "duration": "21:42"
                        },
                        "BEC-CRAM-0.1": {
                            "title": "Microeconomic Concepts and Strategy: Demand",
                            "video_file": "BEC-Cram-0.01.mp4",
                            "duration": "26:15"
                        },
                        "BEC-CRAM-0.2": {
                            "title": "Economics: Supply",
                            "video_file": "BEC-Cram-0.02.mp4",
                            "duration": "16:17"
                        },
                        "BEC-CRAM-0.3": {
                            "title": "Economic Concepts and Strategy - Questions",
                            "video_file": "BEC-Cram-0.03.mp4",
                            "duration": "5:32"
                        },
                        "BEC-CRAM-0.4": {
                            "title": "Economics: Consumers",
                            "video_file": "BEC-Cram-0.04.mp4",
                            "duration": "16:01"
                        },
                        "BEC-CRAM-0.5": {
                            "title": "Economics: Market Structures",
                            "video_file": "BEC-Cram-0.05.mp4",
                            "duration": "9:53"
                        },
                        "BEC-CRAM-0.6": {
                            "title": "Macroeconomics",
                            "video_file": "BEC-Cram-0.06.mp4",
                            "duration": "29:19"
                        },
                        "BEC-CRAM-0.7": {
                            "title": "International Trade",
                            "video_file": "BEC-Cram-0.07.mp4",
                            "duration": "7:17"
                        },
                        "BEC-CRAM-0.8": {
                            "title": "Macroeconomic Concepts and Strategy - Questions",
                            "video_file": "BEC-Cram-0.08.mp4",
                            "duration": "7:36"
                        },
                        "BEC-CRAM-0.9": {
                            "title": "Corporate Governance",
                            "video_file": "BEC-Cram-0.09.mp4",
                            "duration": "33:19"
                        },
                        "BEC-CRAM-0.10": {
                            "title": "Corporate Governance - Questions",
                            "video_file": "BEC-Cram-0.10.mp4",
                            "duration": "2:33"
                        },
                        "BEC-CRAM-0.11": {
                            "title": "Internal Control",
                            "video_file": "BEC-Cram-0.11.mp4",
                            "duration": "16:07"
                        },
                        "BEC-CRAM-0.12": {
                            "title": "Internal Control - Questions",
                            "video_file": "BEC-Cram-0.12.mp4",
                            "duration": "2:39"
                        },
                        "BEC-CRAM-0.13": {
                            "title": "Enterprise Risk Management (ERM)",
                            "video_file": "BEC-Cram-0.13.mp4",
                            "duration": "11:59"
                        },
                        "BEC-CRAM-0.14": {
                            "title": "Enterprise Risk Management (ERM) - Questions",
                            "video_file": "BEC-Cram-0.14.mp4",
                            "duration": "2:00"
                        },
                        "BEC-CRAM-0.15": {
                            "title": "Financial Management",
                            "video_file": "BEC-Cram-0.15.mp4",
                            "duration": "25:03"
                        },
                        "BEC-CRAM-0.16": {
                            "title": "Financial Management - Questions",
                            "video_file": "BEC-Cram-0.16.mp4",
                            "duration": "4:45"
                        },
                        "BEC-CRAM-0.17": {
                            "title": "Capital Budgeting and Present Value",
                            "video_file": "BEC-Cram-0.17.mp4",
                            "duration": "35:37"
                        },
                        "BEC-CRAM-0.18": {
                            "title": "Capital Budgeting and Present Value - Questions",
                            "video_file": "BEC-Cram-0.18.mp4",
                            "duration": "6:56"
                        },
                        "BEC-CRAM-0.19": {
                            "title": "Decision Making: Flow of a Cost System",
                            "video_file": "BEC-Cram-0.19.mp4",
                            "duration": "17:24"
                        },
                        "BEC-CRAM-0.20": {
                            "title": "Decision Making - Questions",
                            "video_file": "BEC-Cram-0.20.mp4",
                            "duration": "7:57"
                        },
                        "BEC-CRAM-0.21": {
                            "title": "Variable and Absorption Costing, and Break Even Analysis",
                            "video_file": "BEC-Cram-0.21.mp4",
                            "duration": "13:23"
                        },
                        "BEC-CRAM-0.22": {
                            "title": "Variable, Absorption Costing, Break Even - Questions",
                            "video_file": "BEC-Cram-0.22.mp4",
                            "duration": "5:01"
                        },
                        "BEC-CRAM-0.23": {
                            "title": "Cost Accounting: Variance Analysis",
                            "video_file": "BEC-Cram-0.23.mp4",
                            "duration": "18:42"
                        },
                        "BEC-CRAM-0.24": {
                            "title": "Cost Accounting - Questions",
                            "video_file": "BEC-Cram-0.24.mp4",
                            "duration": "9:00"
                        },
                        "BEC-CRAM-0.25": {
                            "title": "Process Costing and Joint Product Costing ",
                            "video_file": "BEC-Cram-0.25.mp4",
                            "duration": "22:46"
                        },
                        "BEC-CRAM-0.26": {
                            "title": "Process Costing and Joint Product Costing - Questions",
                            "video_file": "BEC-Cram-0.26.mp4",
                            "duration": "9:39"
                        },
                        "BEC-CRAM-0.27": {
                            "title": "Planning, Control and Analysis",
                            "video_file": "BEC-Cram-0.27.mp4",
                            "duration": "30:28"
                        },
                        "BEC-CRAM-0.28": {
                            "title": "Planning, Control and Analysis - Questions",
                            "video_file": "BEC-Cram-0.28.mp4",
                            "duration": "7:40"
                        },
                        "BEC-CRAM-0.29": {
                            "title": "Project Management",
                            "video_file": "BEC-Cram-0.29.mp4",
                            "duration": "26:09"
                        },
                        "BEC-CRAM-0.30": {
                            "title": "Project Management - Questions",
                            "video_file": "BEC-Cram-0.30.mp4",
                            "duration": "3:03"
                        },
                        "BEC-CRAM-0.31": {
                            "title": "Information Technology (IT)",
                            "video_file": "BEC-Cram-0.31.mp4",
                            "duration": "27:04"
                        },
                        "BEC-CRAM-0.32": {
                            "title": "Data Structure",
                            "video_file": "BEC-Cram-0.32.mp4",
                            "duration": "25:29"
                        },
                        "BEC-CRAM-0.33": {
                            "title": "Information Technology - Questions",
                            "video_file": "BEC-Cram-0.33.mp4",
                            "duration": "3:51"
                        }
                    }
                }
            }
        },
        "FAR-CRAM": {
            "chapters": {
                "FAR-CRAM-0": {
                    "chapter_title": "FAR Cram Roger CPA Review",
                    "topics": {
                        "FAR-CRAM-0.0": {
                            "title": "Cram Course Introduction",
                            "video_file": "FAR-Cram-0.00.mp4",
                            "duration": "21:42"
                        },
                        "FAR-CRAM-0.1": {
                            "title": "Conceptual Framework - Part 1: Objectives through Enhancing Qualitative Characteristics",
                            "video_file": "FAR-Cram-0.01.mp4",
                            "duration": "15:41"
                        },
                        "FAR-CRAM-0.2": {
                            "title": "Conceptual Framework - Part 2: Elements of Financial Statements through Recognition and Measurement",
                            "video_file": "FAR-Cram-0.02.mp4",
                            "duration": "13:32"
                        },
                        "FAR-CRAM-0.3": {
                            "title": "Conceptual Framework - Part 3: Fair Value through FASB Accounting Standards Codification",
                            "video_file": "FAR-Cram-0.03.mp4",
                            "duration": "13:58"
                        },
                        "FAR-CRAM-0.4": {
                            "title": "International Financial Reporting Standards",
                            "video_file": "FAR-Cram-0.04.mp4",
                            "duration": "13:25"
                        },
                        "FAR-CRAM-0.5": {
                            "title": "Major Differences Between US GAAP and IFRS",
                            "video_file": "FAR-Cram-0.05.mp4",
                            "duration": "9:17"
                        },
                        "FAR-CRAM-0.6": {
                            "title": "Research Task Format",
                            "video_file": "FAR-Cram-0.06.mp4",
                            "duration": "3:11"
                        },
                        "FAR-CRAM-0.7": {
                            "title": "Cash Balance Sheet Presentation and IFRS Statement of Financial Position",
                            "video_file": "FAR-Cram-0.07.mp4",
                            "duration": "21:24"
                        },
                        "FAR-CRAM-0.8": {
                            "title": "Investments Cost vs. Equity",
                            "video_file": "FAR-Cram-0.08.mp4",
                            "duration": "31:29"
                        },
                        "FAR-CRAM-0.9": {
                            "title": "Marketable Securities",
                            "video_file": "FAR-Cram-0.09.mp4",
                            "duration": "27:44"
                        },
                        "FAR-CRAM-0.10": {
                            "title": "Derivatives",
                            "video_file": "FAR-Cram-0.10.mp4",
                            "duration": "20:10"
                        },
                        "FAR-CRAM-0.11": {
                            "title": "Foreign Operations",
                            "video_file": "FAR-Cram-0.11.mp4",
                            "duration": "23:20"
                        },
                        "FAR-CRAM-0.12": {
                            "title": "Inventory",
                            "video_file": "FAR-Cram-0.12.mp4",
                            "duration": "25:06"
                        },
                        "FAR-CRAM-0.13": {
                            "title": "Inventory: Dollar Value LIFO and LCM",
                            "video_file": "FAR-Cram-0.13.mp4",
                            "duration": "25:52"
                        },
                        "FAR-CRAM-0.14": {
                            "title": "PP&E: Fixed Assets",
                            "video_file": "FAR-Cram-0.14.mp4",
                            "duration": "27:00"
                        },
                        "FAR-CRAM-0.15": {
                            "title": "Impairment pf PP&E",
                            "video_file": "FAR-Cram-0.15.mp4",
                            "duration": "7:57"
                        },
                        "FAR-CRAM-0.16": {
                            "title": "Nonmonetary Assets",
                            "video_file": "FAR-Cram-0.16.mp4",
                            "duration": "18:44"
                        },
                        "FAR-CRAM-0.17": {
                            "title": "PP&E under IFRS",
                            "video_file": "FAR-Cram-0.17.mp4",
                            "duration": "9:49"
                        },
                        "FAR-CRAM-0.18": {
                            "title": "Intangibles",
                            "video_file": "FAR-Cram-0.18.mp4",
                            "duration": "18:35"
                        },
                        "FAR-CRAM-0.19": {
                            "title": "Receivables",
                            "video_file": "FAR-Cram-0.19.mp4",
                            "duration": "26:23"
                        },
                        "FAR-CRAM-0.20": {
                            "title": "Bonds",
                            "video_file": "FAR-Cram-0.20.mp4",
                            "duration": "19:53"
                        },
                        "FAR-CRAM-0.21": {
                            "title": "Bonds: Effective Interest Method",
                            "video_file": "FAR-Cram-0.21.mp4",
                            "duration": "27:59"
                        },
                        "FAR-CRAM-0.22": {
                            "title": "Leases",
                            "video_file": "FAR-Cram-0.22.mp4",
                            "duration": "34:10"
                        },
                        "FAR-CRAM-0.23": {
                            "title": "Liabilities",
                            "video_file": "FAR-Cram-0.23.mp4",
                            "duration": "29:50"
                        },
                        "FAR-CRAM-0.24": {
                            "title": "Pensions",
                            "video_file": "FAR-Cram-0.24.mp4",
                            "duration": "28:12"
                        },
                        "FAR-CRAM-0.25": {
                            "title": "Pensions - Continued",
                            "video_file": "FAR-Cram-0.25.mp4",
                            "duration": "16:48"
                        },
                        "FAR-CRAM-0.26": {
                            "title": "Stockholders' Equity",
                            "video_file": "FAR-Cram-0.26.mp4",
                            "duration": "42:07"
                        },
                        "FAR-CRAM-0.27": {
                            "title": "Earnings Per Share",
                            "video_file": "FAR-Cram-0.27.mp4",
                            "duration": "22:31"
                        },
                        "FAR-CRAM-0.28": {
                            "title": "Reporting the Results of Operations",
                            "video_file": "FAR-Cram-0.28.mp4",
                            "duration": "23:32"
                        },
                        "FAR-CRAM-0.29": {
                            "title": "Accounting Changes and Error Corrections",
                            "video_file": "FAR-Cram-0.29.mp4",
                            "duration": "20:57"
                        },
                        "FAR-CRAM-0.30": {
                            "title": "Accounting for Income Taxes (Deferred Taxes)",
                            "video_file": "FAR-Cram-0.30.mp4",
                            "duration": "23:15"
                        },
                        "FAR-CRAM-0.31": {
                            "title": "Accounting for Income Taxes (Deferred Taxes) - Questions",
                            "video_file": "FAR-Cram-0.31.mp4",
                            "duration": "23:00"
                        },
                        "FAR-CRAM-0.32": {
                            "title": "Segment Reporting",
                            "video_file": "FAR-Cram-0.32.mp4",
                            "duration": "8:53"
                        },
                        "FAR-CRAM-0.33": {
                            "title": "Development Stage Enterprises, Interim Financial Statements and F/S Ratio Analysis",
                            "video_file": "FAR-Cram-0.33.mp4",
                            "duration": "5:35"
                        },
                        "FAR-CRAM-0.34": {
                            "title": "Installment Sales and Cost Recovery",
                            "video_file": "FAR-Cram-0.34.mp4",
                            "duration": "10:01"
                        },
                        "FAR-CRAM-0.35": {
                            "title": "Long-Term Construction Contracts",
                            "video_file": "FAR-Cram-0.35.mp4",
                            "duration": "16:03"
                        },
                        "FAR-CRAM-0.36": {
                            "title": "Personal Financial Statements",
                            "video_file": "FAR-Cram-0.36.mp4",
                            "duration": "8:53"
                        },
                        "FAR-CRAM-0.37": {
                            "title": "Partnerships",
                            "video_file": "FAR-Cram-0.37.mp4",
                            "duration": "14:46"
                        },
                        "FAR-CRAM-0.38": {
                            "title": "Statement of Cash Flows",
                            "video_file": "FAR-Cram-0.38.mp4",
                            "duration": "31:25"
                        },
                        "FAR-CRAM-0.39": {
                            "title": "Statement of Cash Flows - Continued",
                            "video_file": "FAR-Cram-0.39.mp4",
                            "duration": "33:28"
                        },
                        "FAR-CRAM-0.40": {
                            "title": "Business Combinations and Consolidations",
                            "video_file": "FAR-Cram-0.40.mp4",
                            "duration": "36:52"
                        },
                        "FAR-CRAM-0.41": {
                            "title": "Noncontrolling Interest",
                            "video_file": "FAR-Cram-0.41.mp4",
                            "duration": "24:35"
                        },
                        "FAR-CRAM-0.42": {
                            "title": "Governmental Accounting",
                            "video_file": "FAR-Cram-0.42.mp4",
                            "duration": "23:20"
                        },
                        "FAR-CRAM-0.43": {
                            "title": "Fund Types",
                            "video_file": "FAR-Cram-0.43.mp4",
                            "duration": "9:27"
                        },
                        "FAR-CRAM-0.44": {
                            "title": "Financial Reporting: Government Wide F/S",
                            "video_file": "FAR-Cram-0.44.mp4",
                            "duration": "21:48"
                        },
                        "FAR-CRAM-0.45": {
                            "title": "Financial Reporting: Fund, Proprietary, Fiduciary F/S",
                            "video_file": "FAR-Cram-0.45.mp4",
                            "duration": "19:09"
                        },
                        "FAR-CRAM-0.46": {
                            "title": "Modified Accrual Journal Entries",
                            "video_file": "FAR-Cram-0.46.mp4",
                            "duration": "19:00"
                        },
                        "FAR-CRAM-0.47": {
                            "title": "GASB Concept Statements",
                            "video_file": "FAR-Cram-0.47.mp4",
                            "duration": "4:51"
                        },
                        "FAR-CRAM-0.48": {
                            "title": "Governmental Accounting - Questions",
                            "video_file": "FAR-Cram-0.48.mp4",
                            "duration": "9:21"
                        },
                        "FAR-CRAM-0.49": {
                            "title": "Governmental Accounting - TBS",
                            "video_file": "FAR-Cram-0.49.mp4",
                            "duration": "19:43"
                        },
                        "FAR-CRAM-0.50": {
                            "title": "Non-Profit Accounting",
                            "video_file": "FAR-Cram-0.50.mp4",
                            "duration": "31:23"
                        },
                        "FAR-CRAM-0.51": {
                            "title": "FAR Document Review Simulations (DRS) Appendix - Part 1",
                            "video_file": "FAR-Cram-0.51.mp4",
                            "duration": "31:37"
                        },
                        "FAR-CRAM-0.52": {
                            "title": "FAR Document Review Simulations (DRS) Appendix - Part 2",
                            "video_file": "FAR-Cram-0.52.mp4",
                            "duration": "15:17"
                        }
                    }
                }
            }
        },
        "REG-CRAM": {
            "chapters": {
                "REG-CRAM-0": {
                    "chapter_title": "REG Cram Roger CPA Review",
                    "topics": {
                        "REG-CRAM-0.0": {
                            "title": "Cram Course Introduction",
                            "video_file": "REG-Cram-0.00.mp4",
                            "duration": "21:42"
                        },
                        "REG-CRAM-0.1": {
                            "title": "Individual Taxation",
                            "video_file": "REG-Cram-0.01.mp4",
                            "duration": "31:54"
                        },
                        "REG-CRAM-0.2": {
                            "title": "Individual Taxation: Gross Income",
                            "video_file": "REG-Cram-0.02.mp4",
                            "duration": "34:20"
                        },
                        "REG-CRAM-0.3": {
                            "title": "Individual Taxation: Itemized Deductions",
                            "video_file": "REG-Cram-0.03.mp4",
                            "duration": "20:54"
                        },
                        "REG-CRAM-0.4": {
                            "title": "Individual Taxation: Filing Status",
                            "video_file": "REG-Cram-0.04.mp4",
                            "duration": "11:21"
                        },
                        "REG-CRAM-0.5": {
                            "title": "Individual Taxation - Questions",
                            "video_file": "REG-Cram-0.05.mp4",
                            "duration": "7:40"
                        },
                        "REG-CRAM-0.6": {
                            "title": "Corporate Taxation",
                            "video_file": "REG-Cram-0.06.mp4",
                            "duration": "30:25"
                        },
                        "REG-CRAM-0.7": {
                            "title": "Corporate Taxation - Continued",
                            "video_file": "REG-Cram-0.07.mp4",
                            "duration": "25:22"
                        },
                        "REG-CRAM-0.8": {
                            "title": "Depreciation",
                            "video_file": "REG-Cram-0.08.mp4",
                            "duration": "18:52"
                        },
                        "REG-CRAM-0.9": {
                            "title": "Corporate Taxation - Questions",
                            "video_file": "REG-Cram-0.09.mp4",
                            "duration": "11:09"
                        },
                        "REG-CRAM-0.10": {
                            "title": "Alternative Minimum Tax",
                            "video_file": "REG-Cram-0.10.mp4",
                            "duration": "15:34"
                        },
                        "REG-CRAM-0.11": {
                            "title": "S Corporations",
                            "video_file": "REG-Cram-0.11.mp4",
                            "duration": "22:59"
                        },
                        "REG-CRAM-0.12": {
                            "title": "S Corporations - Continued",
                            "video_file": "REG-Cram-0.12.mp4",
                            "duration": "04:15"
                        },
                        "REG-CRAM-0.13": {
                            "title": "S Corporations - Questions",
                            "video_file": "REG-Cram-0.13.mp4",
                            "duration": "07:06"
                        },
                        "REG-CRAM-0.14": {
                            "title": "Partnership Taxation",
                            "video_file": "REG-Cram-0.14.mp4",
                            "duration": "22:02"
                        },
                        "REG-CRAM-0.15": {
                            "title": "Partnership Taxation - Continued",
                            "video_file": "REG-Cram-0.15.mp4",
                            "duration": "34:52"
                        },
                        "REG-CRAM-0.16": {
                            "title": "Partnership Taxation - Questions",
                            "video_file": "REG-Cram-0.16.mp4",
                            "duration": "7:28"
                        },
                        "REG-CRAM-0.17": {
                            "title": "Estates and Trusts",
                            "video_file": "REG-Cram-0.17.mp4",
                            "duration": "27:36"
                        },
                        "REG-CRAM-0.18": {
                            "title": "Estates",
                            "video_file": "REG-Cram-0.18.mp4",
                            "duration": "9:49"
                        },
                        "REG-CRAM-0.19": {
                            "title": "Gift and Estate Tax",
                            "video_file": "REG-Cram-0.19.mp4",
                            "duration": "12:41"
                        },
                        "REG-CRAM-0.20": {
                            "title": "Estates, Trusts, Gift and Estate Tax - Questions",
                            "video_file": "REG-Cram-0.20.mp4",
                            "duration": "6:43"
                        },
                        "REG-CRAM-0.21": {
                            "title": "Property Taxation",
                            "video_file": "REG-Cram-0.21.mp4",
                            "duration": "33:03"
                        },
                        "REG-CRAM-0.22": {
                            "title": "Tax Preparers' Responsibility",
                            "video_file": "REG-Cram-0.22.mp4",
                            "duration": "12:39"
                        },
                        "REG-CRAM-0.23": {
                            "title": "Tax Exempt Organizations",
                            "video_file": "REG-Cram-0.23.mp4",
                            "duration": "7:04"
                        },
                        "REG-CRAM-0.24": {
                            "title": "Accountant Liability",
                            "video_file": "REG-Cram-0.24.mp4",
                            "duration": "19:55"
                        },
                        "REG-CRAM-0.25": {
                            "title": "Accountant Liability - Questions",
                            "video_file": "REG-Cram-0.25.mp4",
                            "duration": "11:01"
                        },
                        "REG-CRAM-0.26": {
                            "title": "Ethics, Professional and Legal Responsibilities",
                            "video_file": "REG-Cram-0.26.mp4",
                            "duration": "18:44"
                        },
                        "REG-CRAM-0.27": {
                            "title": "Ethics, Professional and Legal Responsibilities - Continued",
                            "video_file": "REG-Cram-0.27.mp4",
                            "duration": "9:54"
                        },
                        "REG-CRAM-0.28": {
                            "title": "Ethics, Professional and Legal Responsibilities - Questions",
                            "video_file": "REG-Cram-0.28.mp4",
                            "duration": "3:05"
                        },
                        "REG-CRAM-0.29": {
                            "title": "Federal Securities Regulations: 1933 Act",
                            "video_file": "REG-Cram-0.29.mp4",
                            "duration": "18:47"
                        },
                        "REG-CRAM-0.30": {
                            "title": "Federal Securities Regulations: 1934 Act",
                            "video_file": "REG-Cram-0.30.mp4",
                            "duration": "14:54"
                        },
                        "REG-CRAM-0.31": {
                            "title": "Federal Securities Regulations - Questions",
                            "video_file": "REG-Cram-0.31.mp4",
                            "duration": "7:44"
                        },
                        "REG-CRAM-0.32": {
                            "title": "Business Structures: Partnerships",
                            "video_file": "REG-Cram-0.32.mp4",
                            "duration": "30:32"
                        },
                        "REG-CRAM-0.33": {
                            "title": "Business Structures: Corporations",
                            "video_file": "REG-Cram-0.33.mp4",
                            "duration": "16:14"
                        },
                        "REG-CRAM-0.34": {
                            "title": "Business Structures - Questions",
                            "video_file": "REG-Cram-0.34.mp4",
                            "duration": "4:27"
                        },
                        "REG-CRAM-0.35": {
                            "title": "Regulation of Business Employment, Environment and Antitrust",
                            "video_file": "REG-Cram-0.35.mp4",
                            "duration": "11:09"
                        },
                        "REG-CRAM-0.36": {
                            "title": "Contracts",
                            "video_file": "REG-Cram-0.36.mp4",
                            "duration": "31:39"
                        },
                        "REG-CRAM-0.37": {
                            "title": "Contracts - Questions",
                            "video_file": "REG-Cram-0.37.mp4",
                            "duration": "3:51"
                        },
                        "REG-CRAM-0.38": {
                            "title": "Sales Contracts",
                            "video_file": "REG-Cram-0.38.mp4",
                            "duration": "23:43"
                        },
                        "REG-CRAM-0.39": {
                            "title": "Sales Contracts - Questions",
                            "video_file": "REG-Cram-0.39.mp4",
                            "duration": "4:50"
                        },
                        "REG-CRAM-0.40": {
                            "title": "Agency",
                            "video_file": "REG-Cram-0.40.mp4",
                            "duration": "9:09"
                        },
                        "REG-CRAM-0.41": {
                            "title": "Property Law and Intellectual Property Rights",
                            "video_file": "REG-Cram-0.41.mp4",
                            "duration": "16:56"
                        },
                        "REG-CRAM-0.42": {
                            "title": "Commercial Paper (Negotiable Instruments)",
                            "video_file": "REG-Cram-0.42.mp4",
                            "duration": "23:39"
                        },
                        "REG-CRAM-0.43": {
                            "title": "Commercial Paper (Negotiable Instruments) - Questions",
                            "video_file": "REG-Cram-0.43.mp4",
                            "duration": "5:50"
                        },
                        "REG-CRAM-0.44": {
                            "title": "Secured Transactions",
                            "video_file": "REG-Cram-0.44.mp4",
                            "duration": "18:02"
                        },
                        "REG-CRAM-0.45": {
                            "title": "Secured Transactions - Questions",
                            "video_file": "REG-Cram-0.45.mp4",
                            "duration": "4:37"
                        },
                        "REG-CRAM-0.46": {
                            "title": "Bankruptcy",
                            "video_file": "REG-Cram-0.46.mp4",
                            "duration": "19:02"
                        },
                        "REG-CRAM-0.47": {
                            "title": "Bankruptcy - Questions",
                            "video_file": "REG-Cram-0.47.mp4",
                            "duration": "6:04"
                        },
                        "REG-CRAM-0.48": {
                            "title": "Suretyship",
                            "video_file": "REG-Cram-0.48.mp4",
                            "duration": "7:02"
                        },
                        "REG-CRAM-0.49": {
                            "title": "Document Review Simulations (DRS) Appendix (REG Cram)",
                            "video_file": "REG-Cram-0.49.mp4",
                            "duration": "30:37"
                        }
                    }
                }
            }
        }
    }
}
